{
  "parent": "block/cube",
  "textures": {
    "particles": "shedar:blocks/futureBlock_blackyellow",
    "north": "shedar:blocks/futureBlock_blackyellow",
    "south": "shedar:blocks/futureBlock_blackyellow",
    "west": "shedar:blocks/futureBlock_blackyellow",
    "east": "shedar:blocks/futureBlock_blackyellow",
    "up": "shedar:blocks/futureBlock_blackyellow",
    "down": "shedar:blocks/futureBlock_blackyellow"
  }
}