{
  "variants": {
    "facing=north,type=blackyellow": {"model": "shedar:futureBlock_blackyellow"},
    "facing=south,type=blackyellow": {"model": "shedar:futureBlock_blackyellow", "y":180},
    "facing=east,type=blackyellow": {"model": "shedar:futureBlock_blackyellow", "y":90, "x":90},
    "facing=west,type=blackyellow": {"model": "shedar:futureBlock_blackyellow", "y":270},
    "facing=up,type=blackyellow": {"model": "shedar:futureBlock_blackyellow", "x":270},
    "facing=down,type=blackyellow": {"model": "shedar:futureBlock_blackyellow", "y":90},
    "facing=north,type=blue": {"model": "shedar:futureBlock_blue"},
    "facing=south,type=blue": {"model": "shedar:futureBlock_blue", "y":180},
    "facing=east,type=blue": {"model": "shedar:futureBlock_blue", "y":90, "x":90},
    "facing=west,type=blue": {"model": "shedar:futureBlock_blue", "y":270},
    "facing=up,type=blue": {"model": "shedar:futureBlock_blue", "x":270},
    "facing=down,type=blue": {"model": "shedar:futureBlock_greycub", "y":90},
    "facing=north,type=greycub": {"model": "shedar:futureBlock_greycub"},
    "facing=south,type=greycub": {"model": "shedar:futureBlock_greycub", "y":180},
    "facing=east,type=greycub": {"model": "shedar:futureBlock_greycub", "y":90, "x":90},
    "facing=west,type=greycub": {"model": "shedar:futureBlock_greycub", "y":270},
    "facing=up,type=greycub": {"model": "shedar:futureBlock_greycub", "x":270},
    "facing=down,type=greycub": {"model": "shedar:futureBlock_greycub", "y":90},
    "facing=north,type=grey": {"model": "shedar:futureBlock_grey"},
    "facing=south,type=grey": {"model": "shedar:futureBlock_grey", "y":180},
    "facing=east,type=grey": {"model": "shedar:futureBlock_grey", "y":90, "x":90},
    "facing=west,type=grey": {"model": "shedar:futureBlock_grey", "y":270},
    "facing=up,type=grey": {"model": "shedar:futureBlock_grey", "x":270},
    "facing=down,type=grey": {"model": "shedar:futureBlock_grey", "y":90},
    "facing=north,type=darkgreen": {"model": "shedar:futureBlock_darkgreen"},
    "facing=south,type=darkgreen": {"model": "shedar:futureBlock_darkgreen", "y":180},
    "facing=east,type=darkgreen": {"model": "shedar:futureBlock_darkgreen", "y":90, "x":90},
    "facing=west,type=darkgreen": {"model": "shedar:futureBlock_darkgreen", "y":270},
    "facing=up,type=darkgreen": {"model": "shedar:futureBlock_darkgreen", "x":270},
    "facing=down,type=darkgreen": {"model": "shedar:futureBlock_darkgreen", "y":90},
    "facing=north,type=black": {"model": "shedar:futureBlock_black"},
    "facing=south,type=black": {"model": "shedar:futureBlock_black", "y":180},
    "facing=east,type=black": {"model": "shedar:futureBlock_black", "y":90, "x":90},
    "facing=west,type=black": {"model": "shedar:futureBlock_black", "y":270},
    "facing=up,type=black": {"model": "shedar:futureBlock_black", "x":270},
    "facing=down,type=black": {"model": "shedar:futureBlock_black", "y":90},
    "facing=north,type=blackblue": {"model": "shedar:futureBlock_blackblue"},
    "facing=south,type=blackblue": {"model": "shedar:futureBlock_blackblue", "y":180},
    "facing=east,type=blackblue": {"model": "shedar:futureBlock_blackblue", "y":90, "x":90},
    "facing=west,type=blackblue": {"model": "shedar:futureBlock_blackblue", "y":270},
    "facing=up,type=blackblue": {"model": "shedar:futureBlock_blackblue", "x":270},
    "facing=down,type=blackblue": {"model": "shedar:futureBlock_blackblue" ,"y":90},
    "facing=north,type=blackbluetwo": {"model": "shedar:futureBlock_blackblue"},
    "facing=south,type=blackbluetwo": {"model": "shedar:futureBlock_blackbluetwo", "y":180},
    "facing=east,type=blackbluetwo": {"model": "shedar:futureBlock_blackbluetwo", "y":90, "x":90},
    "facing=west,type=blackbluetwo": {"model": "shedar:futureBlock_blackbluetwo", "y":270},
    "facing=up,type=blackbluetwo": {"model": "shedar:futureBlock_blackbluetwo", "x":270},
    "facing=down,type=blackbluetwo": {"model": "shedar:futureBlock_blackbluetwo", "y":90},
    "facing=north,type=darkcube": {"model": "shedar:futureBlock_darkcube"},
    "facing=south,type=darkcube": {"model": "shedar:futureBlock_darkcube", "y":180},
    "facing=east,type=darkcube": {"model": "shedar:futureBlock_darkcube", "y":90, "x":90},
    "facing=west,type=darkcube": {"model": "shedar:futureBlock_darkcube", "y":270},
    "facing=up,type=darkcube": {"model": "shedar:futureBlock_darkcube", "x":270},
    "facing=down,type=darkcube": {"model": "shedar:futureBlock_darkcube", "y":90}
  }
}